time, h, phase, temp
0.547     , 1 , 1 ,  1023.25
1.594     , 1 , 1 ,  1024.25
2.641     , 1 , 1 ,  1024.00
3.689     , 1 , 1 ,  1023.75
4.737     , 1 , 1 ,  1023.75
5.784     , 1 , 1 ,  1023.50
6.832     , 1 , 1 ,  1024.25
7.879     , 1 , 1 ,  1023.75
8.927     , 1 , 1 ,  1024.25
9.975     , 1 , 1 ,  1023.75
11.023    , 1 , 1 ,  1024.00
12.070    , 1 , 1 ,  1024.25
13.118    , 1 , 1 ,  1024.50
14.167    , 1 , 1 ,  1024.75
15.214    , 1 , 1 ,  1025.25
16.262    , 1 , 1 ,  1025.00
17.310    , 1 , 1 ,  1025.50
18.358    , 1 , 1 ,  1025.75
19.405    , 1 , 1 ,  1025.50
20.453    , 1 , 1 ,  1026.25
21.501    , 1 , 1 ,  1026.75
22.549    , 1 , 1 ,  1026.25
23.597    , 1 , 1 ,  1027.00
24.645    , 1 , 1 ,  1027.00
25.693    , 1 , 1 ,  1027.00
26.740    , 1 , 1 ,  1027.50
27.789    , 1 , 1 ,  1028.00
28.836    , 1 , 1 ,  1028.75
29.884    , 1 , 1 ,  1029.00
30.931    , 1 , 1 ,  1029.00
31.980    , 1 , 1 ,  1029.50
33.028    , 1 , 1 ,  1030.00
34.075    , 1 , 1 ,  1030.00
35.125    , 1 , 1 ,  1030.75
36.174    , 1 , 1 ,  1030.75
37.223    , 1 , 1 ,  1032.50
38.273    , 1 , 1 ,  1032.25
39.322    , 1 , 1 ,  1033.00
40.372    , 1 , 1 ,  1033.50
41.420    , 1 , 1 ,  1034.25
42.470    , 1 , 1 ,  1035.00
43.520    , 1 , 1 ,  1035.75
44.568    , 1 , 1 ,  1036.50
45.618    , 1 , 1 ,  1037.00
46.667    , 1 , 1 ,  1037.25
47.717    , 1 , 1 ,  1038.50
48.765    , 1 , 1 ,  1038.75
49.815    , 1 , 1 ,  1040.00
50.865    , 1 , 1 ,  1040.25
51.913    , 1 , 1 ,  1041.75
52.963    , 1 , 1 ,  1042.50
54.012    , 1 , 1 ,  1043.00
55.061    , 1 , 1 ,  1043.50
56.111    , 1 , 1 ,  1045.00
57.159    , 1 , 1 ,  1045.00
58.209    , 1 , 1 ,  1046.25
59.257    , 1 , 1 ,  1047.50
60.307    , 1 , 1 ,  1049.00
61.356    , 1 , 1 ,  1049.75
62.404    , 1 , 1 ,  1051.25
63.453    , 1 , 1 ,  1052.00
64.501    , 1 , 1 ,  1052.75
65.550    , 1 , 1 ,  1054.00
66.598    , 1 , 1 ,  1055.25
67.646    , 1 , 1 ,  1056.75
68.694    , 1 , 1 ,  1057.00
69.741    , 1 , 1 ,  1058.75
70.789    , 1 , 1 ,  1059.50
71.836    , 1 , 1 ,  1061.25
72.884    , 1 , 1 ,  1062.75
73.931    , 1 , 1 ,  1064.00
74.979    , 1 , 1 ,  1065.50
76.027    , 1 , 1 ,  1066.50
77.075    , 1 , 1 ,  1068.00
78.123    , 1 , 1 ,  1069.50
79.171    , 1 , 1 ,  1070.75
80.219    , 1 , 1 ,  1072.00
81.266    , 1 , 1 ,  1073.75
82.315    , 1 , 1 ,  1075.25
83.362    , 1 , 1 ,  1076.25
84.410    , 1 , 1 ,  1077.75
85.457    , 1 , 1 ,  1079.75
86.506    , 1 , 1 ,  1081.00
87.554    , 1 , 1 ,  1082.50
88.601    , 1 , 1 ,  1083.75
89.650    , 1 , 1 ,  1085.25
90.697    , 1 , 1 ,  1086.75
91.745    , 1 , 1 ,  1088.25
92.793    , 1 , 1 ,  1090.25
93.841    , 1 , 1 ,  1091.75
94.888    , 1 , 1 ,  1093.25
95.937    , 1 , 1 ,  1095.00
96.985    , 1 , 1 ,  1096.75
98.032    , 1 , 1 ,  1098.25
99.080    , 1 , 1 ,  1100.25
100.129   , 1 , 1 ,  1102.00
101.179   , 1 , 1 ,  1103.75
102.227   , 1 , 1 ,  1105.25
103.277   , 1 , 1 ,  1106.75
104.327   , 1 , 1 ,  1109.25
105.376   , 1 , 1 ,  1110.75
106.426   , 1 , 1 ,  1112.75
107.474   , 1 , 1 ,  1114.75
108.524   , 1 , 1 ,  1116.50
109.574   , 1 , 1 ,  1118.50
110.623   , 1 , 1 ,  1120.50
111.673   , 1 , 1 ,  1122.25
112.722   , 1 , 1 ,  1124.50
113.771   , 1 , 2 ,  2126.00
114.821   , 1 , 2 ,  2127.75
115.870   , 0 , 2 ,  2130.50
116.920   , 0 , 2 ,  2131.75
117.969   , 0 , 2 ,  2134.00
119.019   , 0 , 2 ,  2135.00
120.069   , 0 , 2 ,  2137.00
121.117   , 0 , 2 ,  2139.75
122.167   , 0 , 2 ,  2141.25
123.216   , 0 , 2 ,  2142.75
124.266   , 0 , 2 ,  2144.25
125.316   , 0 , 2 ,  2145.75
126.365   , 0 , 2 ,  2147.75
127.414   , 0 , 2 ,  2149.25
128.462   , 0 , 2 ,  2150.50
129.512   , 0 , 2 ,  2151.75
130.561   , 0 , 2 ,  2153.50
131.610   , 0 , 2 ,  2154.75
132.658   , 0 , 2 ,  2155.75
133.705   , 0 , 2 ,  2157.25
134.753   , 0 , 2 ,  2158.75
135.800   , 0 , 2 ,  2159.25
136.848   , 1 , 2 ,  2160.50
137.895   , 0 , 2 ,  2161.50
138.944   , 0 , 2 ,  2163.25
139.992   , 0 , 2 ,  2164.00
141.039   , 1 , 2 ,  2165.25
142.088   , 0 , 2 ,  2166.25
143.135   , 0 , 2 ,  2167.25
144.184   , 0 , 2 ,  2168.00
145.231   , 1 , 2 ,  2169.00
146.280   , 0 , 2 ,  2170.25
147.328   , 0 , 2 ,  2170.75
148.375   , 1 , 2 ,  2171.75
149.424   , 0 , 2 ,  2172.75
150.471   , 0 , 2 ,  2173.75
151.520   , 0 , 2 ,  2173.75
152.567   , 1 , 2 ,  2175.25
153.616   , 0 , 2 ,  2176.00
154.663   , 1 , 2 ,  2176.50
155.711   , 1 , 2 ,  2177.25
156.760   , 1 , 2 ,  2177.75
157.807   , 1 , 2 ,  2178.75
158.856   , 0 , 2 ,  2179.50
159.903   , 1 , 3 ,  3180.50
160.952   , 1 , 3 ,  3181.50
161.999   , 1 , 3 ,  3182.00
163.047   , 1 , 3 ,  3183.00
164.096   , 1 , 3 ,  3183.75
165.143   , 1 , 3 ,  3184.50
166.193   , 1 , 3 ,  3185.25
167.242   , 1 , 3 ,  3186.25
168.292   , 1 , 3 ,  3187.25
169.340   , 1 , 3 ,  3187.25
170.390   , 1 , 3 ,  3188.75
171.440   , 1 , 3 ,  3189.75
172.489   , 1 , 3 ,  3191.00
173.539   , 1 , 3 ,  3191.50
174.588   , 1 , 3 ,  3192.75
175.637   , 1 , 3 ,  3193.75
176.687   , 1 , 3 ,  3194.00
177.736   , 1 , 3 ,  3195.50
178.786   , 1 , 3 ,  3196.50
179.835   , 1 , 3 ,  3198.00
180.885   , 1 , 3 ,  3198.75
181.934   , 1 , 3 ,  3199.75
182.983   , 1 , 3 ,  3201.00
184.032   , 1 , 3 ,  3202.25
185.081   , 1 , 3 ,  3202.75
186.131   , 1 , 3 ,  3203.75
187.180   , 1 , 3 ,  3205.50
188.229   , 1 , 3 ,  3206.25
189.279   , 1 , 3 ,  3207.50
190.327   , 1 , 3 ,  3208.00
191.377   , 1 , 3 ,  3210.25
192.425   , 1 , 3 ,  3211.25
193.474   , 1 , 3 ,  3212.50
194.523   , 1 , 3 ,  3213.75
195.572   , 1 , 3 ,  3215.00
196.621   , 1 , 3 ,  3215.75
197.669   , 1 , 3 ,  3217.50
198.717   , 1 , 3 ,  3219.00
199.764   , 1 , 3 ,  3220.00
200.812   , 1 , 3 ,  3220.75
201.860   , 1 , 3 ,  3222.75
202.907   , 1 , 3 ,  3224.00
203.955   , 1 , 3 ,  3225.00
205.003   , 1 , 3 ,  3226.75
206.051   , 1 , 3 ,  3227.75
207.099   , 1 , 3 ,  3228.50
208.147   , 1 , 3 ,  3230.50
209.195   , 0 , 3 ,  3232.00
210.243   , 0 , 3 ,  3233.00
211.291   , 0 , 3 ,  3234.50
212.338   , 0 , 3 ,  3236.00
213.387   , 0 , 3 ,  3237.00
214.434   , 0 , 3 ,  3238.00
215.482   , 0 , 3 ,  3239.50
216.529   , 0 , 3 ,  3240.75
217.578   , 0 , 3 ,  3241.50
218.626   , 0 , 3 ,  3243.25
219.673   , 0 , 3 ,  3244.50
220.722   , 0 , 3 ,  3245.50
221.769   , 0 , 3 ,  3246.50
222.817   , 0 , 3 ,  3247.00
223.865   , 0 , 3 ,  3248.00
224.913   , 0 , 3 ,  3248.75
225.960   , 0 , 3 ,  3250.00
227.009   , 0 , 3 ,  3250.50
228.057   , 0 , 3 ,  3251.50
229.104   , 0 , 3 ,  3251.75
230.152   , 0 , 3 ,  3252.25
231.201   , 0 , 3 ,  3253.00
232.250   , 0 , 3 ,  3254.25
233.299   , 0 , 3 ,  3254.50
234.349   , 0 , 3 ,  3255.25
235.398   , 0 , 3 ,  3256.00
236.447   , 0 , 3 ,  3256.50
237.497   , 0 , 3 ,  3256.50
238.545   , 0 , 3 ,  3256.75
239.595   , 0 , 3 ,  3257.75
240.645   , 0 , 3 ,  3258.25
241.694   , 0 , 3 ,  3258.50
242.743   , 0 , 3 ,  3259.00
243.792   , 0 , 3 ,  3259.25
244.842   , 0 , 3 ,  3259.50
245.891   , 0 , 3 ,  3260.00
246.940   , 0 , 3 ,  3260.50
247.990   , 0 , 3 ,  3260.25
249.039   , 0 , 3 ,  3260.50
250.088   , 0 , 3 ,  3260.75
251.138   , 0 , 3 ,  3260.25
252.187   , 0 , 3 ,  3261.25
253.236   , 0 , 3 ,  3261.00
254.285   , 0 , 3 ,  3261.75
255.335   , 0 , 3 ,  3261.50
256.385   , 0 , 3 ,  3261.75
257.433   , 0 , 3 ,  3261.75
258.483   , 0 , 3 ,  3262.00
259.531   , 0 , 3 ,  3262.00
260.580   , 0 , 3 ,  3262.00
261.629   , 0 , 3 ,  3262.50
262.678   , 0 , 3 ,  3262.50
263.726   , 0 , 3 ,  3262.50
264.773   , 0 , 3 ,  3262.50
265.821   , 0 , 3 ,  3262.75
266.868   , 0 , 3 ,  3262.00
267.916   , 0 , 3 ,  3262.25
268.963   , 0 , 3 ,  3262.50
270.011   , 0 , 3 ,  3262.50
271.058   , 0 , 3 ,  3262.25
272.107   , 0 , 3 ,  3262.00
273.155   , 0 , 3 ,  3262.25
274.202   , 0 , 3 ,  3262.00
275.251   , 0 , 3 ,  3261.50
276.298   , 0 , 3 ,  3262.00
277.346   , 0 , 3 ,  3261.75
278.393   , 0 , 3 ,  3261.25
279.442   , 0 , 3 ,  3261.00
280.489   , 0 , 3 ,  3261.50
281.537   , 0 , 3 ,  3261.25
282.586   , 0 , 3 ,  3261.25
283.633   , 0 , 3 ,  3260.75
284.681   , 0 , 3 ,  3260.75
285.729   , 0 , 3 ,  3260.75
286.777   , 0 , 3 ,  3260.50
287.824   , 0 , 3 ,  3260.25
288.873   , 0 , 3 ,  3260.50
289.921   , 0 , 3 ,  3259.75
290.968   , 0 , 3 ,  3259.75
292.016   , 0 , 3 ,  3259.75
293.064   , 0 , 3 ,  3259.25
294.112   , 0 , 3 ,  3259.00
295.159   , 0 , 3 ,  3259.00
296.208   , 0 , 3 ,  3258.75
297.256   , 0 , 3 ,  3257.75
298.306   , 0 , 3 ,  3258.00
299.356   , 0 , 3 ,  3257.50
300.405   , 0 , 3 ,  3257.50
301.454   , 0 , 3 ,  3257.50
302.503   , 0 , 3 ,  3256.75
303.552   , 0 , 3 ,  3257.00
304.602   , 0 , 3 ,  3256.50
305.650   , 0 , 3 ,  3256.50
306.700   , 0 , 3 ,  3256.25
307.748   , 0 , 3 ,  3256.00
308.798   , 0 , 3 ,  3255.50
309.847   , 0 , 3 ,  3255.25
310.896   , 0 , 3 ,  3255.25
311.945   , 0 , 3 ,  3254.75
312.994   , 0 , 3 ,  3254.75
314.044   , 0 , 3 ,  3254.50
315.094   , 0 , 3 ,  3253.75
316.142   , 0 , 3 ,  3253.50
317.192   , 0 , 3 ,  3253.50
318.241   , 0 , 3 ,  3252.50
319.290   , 0 , 3 ,  3252.25
320.339   , 0 , 3 ,  3252.25
321.389   , 0 , 3 ,  3252.25
322.439   , 0 , 3 ,  3252.00
323.487   , 0 , 3 ,  3251.25
324.536   , 0 , 3 ,  3251.50
325.585   , 0 , 3 ,  3250.75
326.634   , 0 , 3 ,  3250.75
327.683   , 0 , 3 ,  3250.00
328.731   , 0 , 3 ,  3250.00
329.779   , 0 , 3 ,  3249.50
330.826   , 0 , 3 ,  3249.25
331.874   , 0 , 3 ,  3249.25
332.921   , 0 , 3 ,  3248.50
333.969   , 0 , 3 ,  3248.75
335.016   , 0 , 3 ,  3247.75
336.064   , 0 , 3 ,  3248.00
337.112   , 0 , 3 ,  3247.75
338.160   , 0 , 3 ,  3247.75
339.208   , 0 , 3 ,  3247.50
340.255   , 0 , 3 ,  3247.25
341.304   , 0 , 3 ,  3246.75
342.351   , 0 , 3 ,  3246.50
343.399   , 0 , 3 ,  3246.50
344.446   , 0 , 3 ,  3246.25
345.495   , 0 , 3 ,  3245.50
346.543   , 0 , 3 ,  3246.00
347.590   , 0 , 3 ,  3246.00
348.639   , 0 , 3 ,  3245.25
349.686   , 0 , 3 ,  3244.75
350.734   , 0 , 3 ,  3244.50
351.782   , 0 , 3 ,  3244.50
352.830   , 0 , 3 ,  3243.50
353.878   , 0 , 3 ,  3243.50
354.925   , 0 , 3 ,  3242.75
355.974   , 0 , 3 ,  3242.75
357.021   , 0 , 3 ,  3242.25
358.069   , 0 , 3 ,  3241.75
359.117   , 0 , 3 ,  3241.25
360.165   , 0 , 3 ,  3241.00
361.212   , 0 , 3 ,  3240.25
362.262   , 0 , 3 ,  3240.25
363.312   , 0 , 3 ,  3240.00
364.360   , 0 , 3 ,  3240.00
365.410   , 0 , 3 ,  3239.75
366.459   , 0 , 3 ,  3239.00
367.508   , 0 , 3 ,  3238.75
368.558   , 0 , 3 ,  3238.00
369.607   , 0 , 3 ,  3238.25
370.657   , 0 , 3 ,  3237.75
371.705   , 0 , 3 ,  3237.50
372.755   , 0 , 3 ,  3237.50
373.805   , 0 , 3 ,  3237.00
374.853   , 0 , 3 ,  3236.50
375.903   , 0 , 3 ,  3236.00
376.952   , 0 , 3 ,  3235.75
378.002   , 0 , 3 ,  3236.00
379.051   , 0 , 3 ,  3235.50
380.099   , 0 , 3 ,  3234.75
381.149   , 0 , 3 ,  3234.75
382.197   , 0 , 3 ,  3234.50
383.247   , 0 , 3 ,  3234.00
384.295   , 0 , 3 ,  3234.00
385.345   , 0 , 3 ,  3234.00
386.394   , 0 , 3 ,  3233.50
387.443   , 0 , 3 ,  3233.00
388.492   , 0 , 3 ,  3233.25
389.541   , 0 , 3 ,  3232.50
390.590   , 0 , 3 ,  3232.00
391.639   , 0 , 3 ,  3232.00
392.688   , 0 , 3 ,  3231.50
393.737   , 0 , 3 ,  3230.50
394.785   , 0 , 3 ,  3230.75
395.833   , 0 , 3 ,  3230.75
396.880   , 0 , 3 ,  3230.50
397.927   , 0 , 3 ,  3230.00
398.974   , 0 , 3 ,  3230.00
400.022   , 0 , 3 ,  3229.50
401.071   , 0 , 3 ,  3229.00
402.118   , 0 , 3 ,  3228.75
403.166   , 0 , 3 ,  3228.50
404.213   , 0 , 3 ,  3228.50
405.262   , 0 , 3 ,  3227.00
406.309   , 0 , 3 ,  3227.25
407.357   , 0 , 3 ,  3227.50
408.406   , 0 , 3 ,  3227.00
409.453   , 0 , 3 ,  3226.75
410.501   , 0 , 3 ,  3226.25
411.549   , 0 , 3 ,  3226.25
412.597   , 0 , 3 ,  3226.00
413.644   , 0 , 3 ,  3225.75
414.692   , 0 , 3 ,  3225.50
415.740   , 0 , 3 ,  3224.50
416.788   , 0 , 3 ,  3224.75
417.836   , 0 , 3 ,  3224.00
418.884   , 0 , 3 ,  3224.25
419.932   , 0 , 3 ,  3223.00
420.979   , 0 , 3 ,  3223.25
422.028   , 0 , 3 ,  3223.50
423.075   , 0 , 3 ,  3223.00
424.123   , 0 , 3 ,  3222.25
425.171   , 0 , 3 ,  3222.50
426.219   , 0 , 3 ,  3222.00
427.267   , 0 , 3 ,  3221.75
428.316   , 0 , 3 ,  3221.25
429.366   , 0 , 3 ,  3221.25
430.414   , 0 , 3 ,  3221.00
431.464   , 0 , 3 ,  3220.50
432.514   , 0 , 3 ,  3220.50
433.562   , 0 , 3 ,  3220.25
434.612   , 0 , 3 ,  3219.75
435.661   , 0 , 3 ,  3219.50
436.711   , 0 , 3 ,  3219.00
437.760   , 0 , 3 ,  3218.50
438.809   , 0 , 3 ,  3218.25
439.859   , 0 , 3 ,  3218.50
440.907   , 0 , 3 ,  3218.00
441.957   , 0 , 3 ,  3217.50
443.006   , 0 , 3 ,  3217.75
444.056   , 0 , 3 ,  3217.50
445.105   , 0 , 3 ,  3216.75
446.154   , 0 , 3 ,  3216.75
447.204   , 0 , 3 ,  3216.25
448.252   , 0 , 3 ,  3216.25
449.302   , 0 , 3 ,  3215.50
450.352   , 0 , 3 ,  3215.25
451.401   , 0 , 3 ,  3215.00
452.450   , 0 , 3 ,  3215.00
453.499   , 0 , 3 ,  3215.00
454.548   , 0 , 3 ,  3214.50
455.598   , 0 , 3 ,  3214.00
456.646   , 0 , 3 ,  3213.50
457.695   , 0 , 3 ,  3213.25
458.743   , 0 , 3 ,  3213.00
459.792   , 0 , 3 ,  3212.75
460.839   , 0 , 3 ,  3212.25
461.887   , 0 , 3 ,  3212.00
462.934   , 0 , 3 ,  3212.00
463.981   , 0 , 3 ,  3211.75
465.029   , 0 , 3 ,  3211.25
466.076   , 0 , 3 ,  3211.25
467.124   , 0 , 3 ,  3210.75
468.172   , 0 , 3 ,  3210.25
469.220   , 0 , 3 ,  3210.00
470.267   , 0 , 3 ,  3210.00
471.316   , 0 , 3 ,  3209.50
472.364   , 0 , 3 ,  3209.25
473.411   , 0 , 3 ,  3208.75
474.460   , 0 , 3 ,  3209.00
475.507   , 0 , 3 ,  3209.00
476.555   , 0 , 3 ,  3208.75
477.602   , 0 , 3 ,  3208.25
478.651   , 0 , 3 ,  3208.00
479.698   , 0 , 3 ,  3208.25
480.746   , 0 , 3 ,  3207.50
481.795   , 0 , 3 ,  3207.00
482.842   , 0 , 3 ,  3207.00
483.890   , 0 , 3 ,  3206.50
484.938   , 0 , 3 ,  3207.00
485.986   , 0 , 3 ,  3206.25
487.033   , 0 , 3 ,  3206.25
488.081   , 0 , 3 ,  3205.75
489.129   , 0 , 3 ,  3205.50
490.177   , 0 , 3 ,  3204.75
491.225   , 0 , 3 ,  3204.75
492.273   , 0 , 3 ,  3205.00
493.322   , 0 , 3 ,  3204.75
494.371   , 0 , 3 ,  3204.25
495.420   , 0 , 3 ,  3204.25
496.470   , 0 , 3 ,  3203.75
497.519   , 0 , 3 ,  3203.75
498.568   , 0 , 3 ,  3203.50
499.617   , 0 , 3 ,  3203.00
500.666   , 0 , 3 ,  3203.00
501.715   , 0 , 3 ,  3202.50
502.764   , 0 , 3 ,  3202.25
503.814   , 0 , 3 ,  3202.25
504.862   , 0 , 3 ,  3202.25
505.912   , 0 , 3 ,  3201.25
506.961   , 0 , 3 ,  3201.25
508.010   , 0 , 3 ,  3200.75
509.060   , 0 , 3 ,  3201.00
510.109   , 0 , 3 ,  3200.75
511.159   , 0 , 3 ,  3200.50
512.207   , 0 , 3 ,  3200.25
513.257   , 0 , 3 ,  3200.00
514.307   , 0 , 3 ,  3199.50
515.355   , 0 , 3 ,  3199.75
516.405   , 0 , 3 ,  3199.50
517.454   , 0 , 3 ,  3199.00
518.504   , 0 , 3 ,  3198.75
519.553   , 0 , 3 ,  3198.25
520.602   , 0 , 3 ,  3198.50
521.651   , 0 , 3 ,  3198.25
522.699   , 0 , 3 ,  3198.25
523.749   , 0 , 3 ,  3197.75
524.797   , 0 , 3 ,  3197.25
525.846   , 0 , 3 ,  3197.50
526.893   , 0 , 3 ,  3197.00
527.940   , 0 , 3 ,  3197.00
528.988   , 0 , 3 ,  3196.50
530.035   , 0 , 3 ,  3196.25
531.083   , 0 , 3 ,  3195.50
532.130   , 0 , 3 ,  3195.50
533.179   , 0 , 3 ,  3195.25
534.226   , 0 , 3 ,  3195.75
535.274   , 0 , 3 ,  3195.25
536.323   , 0 , 3 ,  3194.75
537.370   , 0 , 3 ,  3194.75
538.418   , 0 , 3 ,  3194.00
539.466   , 0 , 3 ,  3194.00
540.514   , 0 , 3 ,  3194.25
541.561   , 0 , 3 ,  3194.00
542.609   , 0 , 3 ,  3194.00
543.657   , 0 , 3 ,  3193.25
544.705   , 0 , 3 ,  3193.00
545.753   , 0 , 3 ,  3192.75
546.801   , 0 , 3 ,  3193.00
547.849   , 0 , 3 ,  3192.50
548.896   , 0 , 3 ,  3191.75
549.945   , 0 , 3 ,  3192.00
550.992   , 0 , 3 ,  3191.50
552.040   , 0 , 3 ,  3191.75
553.088   , 0 , 3 ,  3191.00
554.136   , 0 , 3 ,  3190.75
555.184   , 0 , 3 ,  3190.50
556.231   , 0 , 3 ,  3191.00
557.280   , 0 , 3 ,  3190.50
558.327   , 0 , 3 ,  3190.25
559.377   , 0 , 3 ,  3189.75
560.425   , 0 , 3 ,  3189.75
561.475   , 0 , 3 ,  3189.50
562.525   , 0 , 3 ,  3189.00
563.574   , 0 , 3 ,  3188.50
564.623   , 0 , 3 ,  3189.00
565.672   , 0 , 3 ,  3188.75
566.722   , 0 , 3 ,  3188.25
567.771   , 0 , 3 ,  3188.25
568.820   , 0 , 3 ,  3188.25
569.870   , 0 , 3 ,  3187.75
570.919   , 0 , 3 ,  3187.50
571.968   , 0 , 3 ,  3187.25
573.017   , 0 , 3 ,  3187.25
574.066   , 0 , 3 ,  3187.00
575.115   , 0 , 3 ,  3186.25
576.164   , 0 , 3 ,  3186.50
577.213   , 0 , 3 ,  3186.75
578.263   , 0 , 3 ,  3186.00
579.311   , 0 , 3 ,  3186.25
580.361   , 0 , 3 ,  3185.75
581.409   , 0 , 3 ,  3185.50
582.459   , 0 , 3 ,  3185.75
583.507   , 0 , 3 ,  3185.00
584.557   , 0 , 3 ,  3185.25
585.606   , 0 , 3 ,  3184.75
586.655   , 0 , 3 ,  3184.50
587.704   , 0 , 3 ,  3184.50
588.752   , 0 , 3 ,  3183.25
589.802   , 0 , 3 ,  3184.00
590.851   , 0 , 3 ,  3183.75
591.898   , 0 , 3 ,  3183.75
592.946   , 0 , 3 ,  3182.75
593.992   , 0 , 3 ,  3183.25
595.040   , 0 , 3 ,  3183.00
596.087   , 0 , 3 ,  3183.00
597.135   , 0 , 3 ,  3182.25
598.182   , 0 , 3 ,  3182.50
599.231   , 0 , 3 ,  3182.25
600.279   , 0 , 3 ,  3182.25
601.326   , 0 , 3 ,  3182.00
602.375   , 0 , 3 ,  3181.25
603.422   , 0 , 3 ,  3181.50
604.470   , 0 , 3 ,  3180.75
605.518   , 0 , 3 ,  3180.75
606.566   , 0 , 3 ,  3180.50
607.613   , 0 , 3 ,  3180.50
608.662   , 0 , 3 ,  3180.25
609.710   , 0 , 3 ,  3180.25
610.757   , 0 , 4 ,  4179.75
611.805   , 0 , 4 ,  4180.00
612.853   , 0 , 4 ,  4179.75
613.901   , 0 , 4 ,  4179.25
614.948   , 0 , 4 ,  4178.75
615.997   , 0 , 4 ,  4179.00
617.044   , 0 , 4 ,  4178.75
618.092   , 0 , 4 ,  4178.75
619.141   , 0 , 4 ,  4178.50
620.188   , 0 , 4 ,  4178.25
621.236   , 0 , 4 ,  4178.00
622.283   , 0 , 4 ,  4177.50
623.332   , 0 , 4 ,  4177.50
624.380   , 0 , 4 ,  4177.25
625.430   , 0 , 4 ,  4177.25
626.480   , 0 , 4 ,  4177.25
627.529   , 0 , 4 ,  4176.75
628.578   , 0 , 4 ,  4176.50
629.627   , 0 , 4 ,  4176.50
630.677   , 0 , 4 ,  4176.50
631.726   , 0 , 4 ,  4176.00
632.775   , 0 , 4 ,  4176.00
633.825   , 0 , 4 ,  4175.25
634.874   , 0 , 4 ,  4175.50
635.923   , 0 , 4 ,  4175.25
636.973   , 0 , 4 ,  4175.25
638.022   , 0 , 4 ,  4175.25
639.071   , 0 , 4 ,  4174.25
640.120   , 0 , 4 ,  4174.25
641.170   , 0 , 4 ,  4174.25
642.220   , 0 , 4 ,  4174.00
643.268   , 0 , 4 ,  4173.75
644.318   , 0 , 4 ,  4173.75
645.367   , 0 , 4 ,  4174.00
646.416   , 0 , 4 ,  4173.50
647.465   , 0 , 4 ,  4173.25
648.515   , 0 , 4 ,  4172.75
649.564   , 0 , 4 ,  4172.75
650.613   , 0 , 4 ,  4172.75
651.661   , 0 , 4 ,  4172.75
652.710   , 0 , 4 ,  4172.50
653.759   , 0 , 4 ,  4172.00
654.808   , 0 , 4 ,  4172.00
655.856   , 0 , 4 ,  4171.75
656.905   , 0 , 4 ,  4171.50
657.951   , 0 , 4 ,  4171.25
658.999   , 0 , 4 ,  4171.25
660.046   , 0 , 4 ,  4171.25
661.094   , 0 , 4 ,  4170.75
662.141   , 0 , 4 ,  4170.75
663.189   , 0 , 4 ,  4170.50
664.238   , 0 , 4 ,  4170.00
665.285   , 0 , 4 ,  4170.00
666.333   , 0 , 4 ,  4170.25
667.381   , 0 , 4 ,  4169.25
668.429   , 0 , 4 ,  4169.00
669.476   , 0 , 4 ,  4169.00
670.525   , 0 , 4 ,  4169.50
671.572   , 0 , 4 ,  4168.50
672.620   , 0 , 4 ,  4168.75
673.668   , 0 , 4 ,  4168.75
674.716   , 0 , 4 ,  4168.50
675.764   , 0 , 4 ,  4168.50
676.811   , 0 , 4 ,  4168.25
677.860   , 0 , 4 ,  4167.75
678.907   , 0 , 4 ,  4168.00
679.955   , 0 , 4 ,  4167.75
681.003   , 0 , 4 ,  4167.50
682.051   , 0 , 4 ,  4167.75
683.099   , 0 , 4 ,  4167.25
684.146   , 0 , 4 ,  4167.25
685.195   , 0 , 4 ,  4166.50
686.242   , 0 , 4 ,  4166.75
687.290   , 0 , 4 ,  4166.50
688.338   , 0 , 4 ,  4166.50
689.386   , 0 , 4 ,  4166.25
690.435   , 0 , 4 ,  4165.75
691.484   , 0 , 4 ,  4165.25
692.533   , 0 , 4 ,  4166.00
693.582   , 0 , 4 ,  4165.75
694.631   , 0 , 4 ,  4165.25
695.681   , 0 , 4 ,  4164.75
696.730   , 0 , 4 ,  4164.50
697.780   , 0 , 4 ,  4164.75
698.828   , 0 , 4 ,  4164.50
699.878   , 0 , 4 ,  4164.75
700.928   , 0 , 4 ,  4164.25
701.976   , 0 , 4 ,  4164.25
703.026   , 0 , 4 ,  4164.00
704.075   , 0 , 4 ,  4164.00
705.125   , 0 , 4 ,  4163.75
706.173   , 0 , 4 ,  4163.50
707.223   , 0 , 4 ,  4163.25
708.273   , 0 , 4 ,  4163.25
709.321   , 0 , 4 ,  4163.00
710.371   , 0 , 4 ,  4163.00
711.420   , 0 , 4 ,  4162.75
712.469   , 0 , 4 ,  4162.50
713.519   , 0 , 4 ,  4162.25
714.568   , 0 , 4 ,  4162.00
715.618   , 0 , 4 ,  4161.75
716.666   , 0 , 4 ,  4161.75
717.715   , 0 , 4 ,  4161.50
718.765   , 0 , 4 ,  4161.50
719.813   , 0 , 4 ,  4161.50
720.862   , 0 , 4 ,  4161.00
721.910   , 0 , 4 ,  4161.25
722.958   , 0 , 4 ,  4161.00
724.005   , 0 , 4 ,  4160.75
725.053   , 0 , 4 ,  4160.50
726.100   , 0 , 4 ,  4160.00
727.148   , 0 , 4 ,  4160.00
728.196   , 0 , 4 ,  4160.00
729.243   , 0 , 4 ,  4159.75
730.291   , 0 , 4 ,  4159.75
731.339   , 0 , 4 ,  4159.75
732.387   , 0 , 4 ,  4159.75
733.434   , 0 , 4 ,  4159.50
734.482   , 0 , 4 ,  4159.25
735.531   , 0 , 4 ,  4158.75
736.578   , 0 , 4 ,  4159.00
737.626   , 0 , 4 ,  4159.00
738.674   , 0 , 4 ,  4158.75
739.722   , 0 , 4 ,  4158.50
740.769   , 0 , 4 ,  4157.75
741.818   , 0 , 4 ,  4158.00
742.865   , 0 , 4 ,  4158.25
743.913   , 0 , 4 ,  4158.00
744.961   , 0 , 4 ,  4157.75
746.009   , 0 , 4 ,  4157.75
747.057   , 0 , 4 ,  4157.50
748.104   , 0 , 4 ,  4157.25
749.153   , 0 , 4 ,  4157.50
750.200   , 0 , 4 ,  4157.25
751.248   , 0 , 4 ,  4156.75
752.296   , 0 , 4 ,  4156.50
753.344   , 0 , 4 ,  4156.75
754.392   , 0 , 4 ,  4156.00
755.441   , 0 , 4 ,  4156.00
756.491   , 0 , 4 ,  4156.00
757.539   , 0 , 4 ,  4155.75
758.589   , 0 , 4 ,  4155.50
759.639   , 0 , 4 ,  4155.25
760.687   , 0 , 4 ,  4155.50
761.736   , 0 , 4 ,  4155.25
762.785   , 0 , 4 ,  4154.75
763.835   , 0 , 4 ,  4155.00
764.883   , 0 , 4 ,  4154.75
765.933   , 0 , 4 ,  4154.75
766.982   , 0 , 4 ,  4154.50
768.031   , 0 , 4 ,  4154.00
769.080   , 0 , 4 ,  4154.00
770.129   , 0 , 4 ,  4153.50
771.178   , 0 , 4 ,  4154.00
772.228   , 0 , 4 ,  4153.75
773.276   , 0 , 4 ,  4153.50
774.326   , 0 , 4 ,  4153.50
775.375   , 0 , 4 ,  4153.00
776.424   , 0 , 4 ,  4153.25
777.474   , 0 , 4 ,  4152.75
778.523   , 0 , 4 ,  4152.75
779.573   , 0 , 4 ,  4152.75
780.621   , 0 , 4 ,  4152.75
781.671   , 0 , 4 ,  4152.50
782.720   , 0 , 4 ,  4151.75
783.769   , 0 , 4 ,  4152.25
784.818   , 0 , 4 ,  4152.00
785.866   , 0 , 4 ,  4152.00
786.916   , 0 , 4 ,  4152.25
787.963   , 0 , 4 ,  4151.50
789.011   , 0 , 4 ,  4151.00
790.059   , 0 , 4 ,  4151.50
791.106   , 0 , 4 ,  4151.00
792.154   , 0 , 4 ,  4150.75
793.201   , 0 , 4 ,  4151.00
794.249   , 0 , 4 ,  4150.50
795.296   , 0 , 4 ,  4150.75
796.345   , 0 , 4 ,  4150.50
797.392   , 0 , 4 ,  4150.50
798.440   , 0 , 4 ,  4150.00
799.489   , 0 , 4 ,  4150.25
800.536   , 0 , 4 ,  4150.00
801.584   , 0 , 4 ,  4149.75
802.632   , 0 , 4 ,  4149.75
803.680   , 0 , 4 ,  4149.50
804.727   , 0 , 4 ,  4149.50
805.775   , 0 , 4 ,  4148.50
806.823   , 0 , 4 ,  4149.00
807.871   , 0 , 4 ,  4148.75
808.919   , 0 , 4 ,  4148.50
809.967   , 0 , 4 ,  4148.50
811.015   , 0 , 4 ,  4148.50
812.062   , 0 , 4 ,  4148.00
813.111   , 0 , 4 ,  4148.25
814.158   , 0 , 4 ,  4147.75
815.206   , 0 , 4 ,  4148.00
816.254   , 0 , 4 ,  4147.75
817.302   , 0 , 4 ,  4147.75
818.350   , 0 , 4 ,  4147.50
819.397   , 0 , 4 ,  4147.00
820.446   , 0 , 4 ,  4147.50
821.494   , 0 , 4 ,  4147.25
822.544   , 0 , 4 ,  4146.75
823.593   , 0 , 4 ,  4147.00
824.643   , 0 , 4 ,  4146.75
825.692   , 0 , 4 ,  4146.50
826.741   , 0 , 4 ,  4146.25
827.791   , 0 , 4 ,  4146.00
828.839   , 0 , 4 ,  4146.50
829.889   , 0 , 4 ,  4146.00
830.939   , 0 , 4 ,  4145.75
831.988   , 0 , 4 ,  4145.50
833.037   , 0 , 4 ,  4145.50
834.086   , 0 , 4 ,  4144.75
835.136   , 0 , 4 ,  4144.75
836.185   , 0 , 4 ,  4145.25
837.234   , 0 , 4 ,  4144.75
838.284   , 0 , 4 ,  4145.00
839.332   , 0 , 4 ,  4144.50
840.381   , 0 , 4 ,  4144.50
841.431   , 0 , 4 ,  4144.50
842.479   , 0 , 4 ,  4143.25
843.529   , 0 , 4 ,  4144.25
844.578   , 0 , 4 ,  4144.00
845.627   , 0 , 4 ,  4143.50
846.676   , 0 , 4 ,  4143.75
847.724   , 0 , 4 ,  4143.50
848.774   , 0 , 4 ,  4143.25
849.822   , 0 , 4 ,  4143.25
850.871   , 0 , 4 ,  4143.25
851.919   , 0 , 4 ,  4143.00
852.968   , 0 , 4 ,  4143.00
854.016   , 0 , 4 ,  4142.00
855.063   , 0 , 4 ,  4142.50
856.111   , 0 , 4 ,  4142.00
857.158   , 0 , 4 ,  4142.25
858.206   , 0 , 4 ,  4142.25
859.253   , 0 , 4 ,  4142.25
860.301   , 0 , 4 ,  4142.00
861.348   , 0 , 4 ,  4142.00
862.397   , 0 , 4 ,  4142.00
863.444   , 0 , 4 ,  4141.75
864.492   , 0 , 4 ,  4141.25
865.541   , 0 , 4 ,  4141.25
866.588   , 0 , 4 ,  4141.25
867.636   , 0 , 4 ,  4141.00
868.684   , 0 , 4 ,  4140.50
869.732   , 0 , 4 ,  4140.75
870.779   , 0 , 4 ,  4140.75
871.827   , 0 , 4 ,  4140.50
872.876   , 0 , 4 ,  4140.25
873.923   , 0 , 4 ,  4140.25
874.971   , 0 , 4 ,  4140.25
876.019   , 0 , 4 ,  4140.00
877.067   , 0 , 4 ,  4140.00
878.114   , 0 , 4 ,  4139.75
879.162   , 0 , 4 ,  4139.75
880.210   , 0 , 4 ,  4139.50
881.258   , 0 , 4 ,  4139.50
882.306   , 0 , 4 ,  4139.25
883.354   , 0 , 4 ,  4139.00
884.402   , 0 , 4 ,  4138.75
885.449   , 0 , 4 ,  4138.75
886.499   , 0 , 4 ,  4138.50
887.547   , 0 , 4 ,  4138.50
888.597   , 0 , 4 ,  4138.25
889.647   , 0 , 4 ,  4138.25
890.696   , 0 , 4 ,  4138.25
891.745   , 0 , 4 ,  4138.00
892.794   , 0 , 4 ,  4137.75
893.844   , 0 , 4 ,  4138.00
894.893   , 0 , 4 ,  4137.50
895.942   , 0 , 4 ,  4137.50
896.992   , 0 , 4 ,  4137.25
898.040   , 0 , 4 ,  4137.25
899.090   , 0 , 4 ,  4137.00
900.140   , 0 , 4 ,  4136.75
901.189   , 0 , 4 ,  4137.00
902.238   , 0 , 4 ,  4136.75
903.287   , 0 , 4 ,  4136.75
904.337   , 0 , 4 ,  4136.50
905.385   , 0 , 4 ,  4136.75
906.435   , 0 , 4 ,  4136.25
907.485   , 0 , 4 ,  4136.25
908.534   , 0 , 4 ,  4135.75
909.583   , 0 , 4 ,  4136.25
910.632   , 0 , 4 ,  4135.75
911.682   , 0 , 4 ,  4136.00
912.731   , 0 , 4 ,  4135.75
913.780   , 0 , 4 ,  4135.25
914.829   , 0 , 4 ,  4135.00
915.877   , 0 , 4 ,  4135.25
916.926   , 0 , 4 ,  4135.00
917.976   , 0 , 4 ,  4134.75
919.023   , 0 , 4 ,  4135.00
920.071   , 0 , 4 ,  4134.75
921.118   , 0 , 4 ,  4134.50
922.166   , 0 , 4 ,  4134.25
923.213   , 0 , 4 ,  4134.75
924.261   , 0 , 4 ,  4134.75
925.308   , 0 , 4 ,  4134.25
926.357   , 0 , 4 ,  4134.00
927.405   , 0 , 4 ,  4134.00
928.452   , 0 , 4 ,  4134.00
929.500   , 0 , 4 ,  4134.00
930.548   , 0 , 4 ,  4133.75
931.596   , 0 , 4 ,  4133.25
932.643   , 0 , 4 ,  4133.00
933.692   , 0 , 4 ,  4133.00
934.739   , 0 , 4 ,  4132.75
935.787   , 0 , 4 ,  4133.00
936.835   , 0 , 4 ,  4133.00
937.883   , 0 , 4 ,  4132.75
938.931   , 0 , 4 ,  4133.00
939.978   , 0 , 4 ,  4132.50
941.027   , 0 , 4 ,  4132.50
942.074   , 0 , 4 ,  4132.00
943.122   , 0 , 4 ,  4132.25
944.171   , 0 , 4 ,  4132.25
945.218   , 0 , 4 ,  4131.75
946.266   , 0 , 4 ,  4131.50
947.313   , 0 , 4 ,  4131.50
948.362   , 0 , 4 ,  4131.50
949.409   , 0 , 4 ,  4131.50
950.457   , 0 , 4 ,  4131.75
951.505   , 0 , 4 ,  4131.50
952.554   , 0 , 4 ,  4131.50
953.604   , 0 , 4 ,  4131.25
954.652   , 0 , 4 ,  4130.75
955.702   , 0 , 4 ,  4130.50
956.750   , 0 , 4 ,  4130.75
957.800   , 0 , 4 ,  4130.75
958.849   , 0 , 4 ,  4130.00
959.898   , 0 , 4 ,  4130.25
960.948   , 0 , 4 ,  4130.25
961.996   , 0 , 4 ,  4129.75
963.046   , 0 , 4 ,  4130.00
964.094   , 0 , 4 ,  4130.00
965.144   , 0 , 4 ,  4129.75
966.194   , 0 , 4 ,  4129.50
967.242   , 0 , 4 ,  4129.50
968.292   , 0 , 4 ,  4129.75
969.341   , 0 , 4 ,  4129.75
970.391   , 0 , 4 ,  4129.00
971.440   , 0 , 4 ,  4129.25
972.489   , 0 , 4 ,  4129.25
973.539   , 0 , 4 ,  4129.00
974.587   , 0 , 4 ,  4129.00
975.637   , 0 , 4 ,  4128.50
976.687   , 0 , 4 ,  4128.75
977.735   , 0 , 4 ,  4128.25
978.785   , 0 , 4 ,  4128.50
979.833   , 0 , 4 ,  4128.25
980.882   , 0 , 4 ,  4128.00
981.932   , 0 , 4 ,  4128.25
982.980   , 0 , 4 ,  4127.75
984.029   , 0 , 4 ,  4128.00
985.076   , 0 , 4 ,  4128.00
986.124   , 0 , 4 ,  4127.50
987.171   , 0 , 4 ,  4127.75
988.219   , 0 , 4 ,  4127.25
989.266   , 0 , 4 ,  4127.25
990.314   , 0 , 4 ,  4127.00
991.362   , 0 , 4 ,  4127.25
992.409   , 0 , 4 ,  4127.00
993.457   , 0 , 4 ,  4127.00
994.505   , 0 , 4 ,  4127.00
995.553   , 0 , 4 ,  4126.50
996.600   , 0 , 4 ,  4126.50
997.649   , 0 , 4 ,  4126.50
998.696   , 0 , 4 ,  4126.50
999.744   , 0 , 4 ,  4126.50
1000.793  , 0 , 4 ,  4126.00
1001.840  , 0 , 4 ,  4126.25
1002.888  , 0 , 4 ,  4126.25
1003.936  , 0 , 4 ,  4125.75
1004.984  , 0 , 4 ,  4125.50
1006.031  , 0 , 4 ,  4125.75
1007.080  , 0 , 4 ,  4125.25
1008.128  , 0 , 4 ,  4125.50
1009.175  , 0 , 4 ,  4125.50
1010.224  , 0 , 4 ,  4125.50
1011.271  , 0 , 4 ,  4125.25
1012.319  , 0 , 4 ,  4124.75
1013.367  , 0 , 4 ,  4125.00
1014.415  , 0 , 4 ,  4124.75
1015.462  , 0 , 4 ,  4124.50
1016.511  , 0 , 4 ,  4124.75
1017.561  , 0 , 4 ,  4124.75
1018.609  , 0 , 4 ,  4124.50
1019.659  , 0 , 4 ,  4124.00
1020.708  , 0 , 4 ,  4124.25
1021.758  , 0 , 4 ,  4124.25
1022.807  , 0 , 4 ,  4123.50
1023.856  , 0 , 4 ,  4123.50
1024.906  , 0 , 4 ,  4124.00
1025.955  , 0 , 4 ,  4123.25
1027.004  , 0 , 4 ,  4123.00
1028.054  , 0 , 4 ,  4123.75
1029.103  , 0 , 4 ,  4123.00
1030.153  , 0 , 4 ,  4123.25
1031.201  , 0 , 4 ,  4122.75
1032.251  , 0 , 4 ,  4123.00
1033.299  , 0 , 4 ,  4123.25
1034.349  , 0 , 4 ,  4123.00
1035.398  , 0 , 4 ,  4123.00
1036.447  , 0 , 4 ,  4122.75
1037.496  , 0 , 4 ,  4122.75
1038.545  , 0 , 4 ,  4122.25
1039.595  , 0 , 4 ,  4122.50
1040.644  , 0 , 4 ,  4122.00
1041.693  , 0 , 4 ,  4122.00
1042.742  , 0 , 4 ,  4121.50
1043.791  , 0 , 4 ,  4121.75
1044.840  , 0 , 4 ,  4121.75
1045.890  , 0 , 4 ,  4121.75
1046.938  , 0 , 4 ,  4121.50
1047.987  , 0 , 4 ,  4121.25
1049.036  , 0 , 4 ,  4121.50
1050.085  , 0 , 4 ,  4121.25
1051.132  , 0 , 4 ,  4121.25
1052.180  , 0 , 4 ,  4121.25
1053.228  , 0 , 4 ,  4121.00
1054.274  , 0 , 4 ,  4121.00
1055.322  , 0 , 4 ,  4121.00
1056.370  , 0 , 4 ,  4120.50
1057.418  , 0 , 4 ,  4120.75
1058.465  , 0 , 4 ,  4120.75
1059.514  , 0 , 4 ,  4120.75
1060.561  , 0 , 4 ,  4120.50
1061.610  , 0 , 4 ,  4120.00
1062.658  , 0 , 4 ,  4120.00
1063.705  , 0 , 4 ,  4120.25
1064.754  , 0 , 4 ,  4120.00
1065.801  , 0 , 4 ,  4120.00
1066.849  , 0 , 4 ,  4120.00
1067.897  , 0 , 4 ,  4119.50
1068.945  , 0 , 4 ,  4119.75
1069.992  , 0 , 4 ,  4119.75
1071.041  , 0 , 4 ,  4119.25
1072.089  , 0 , 4 ,  4119.25
1073.136  , 0 , 4 ,  4118.75
1074.185  , 0 , 4 ,  4119.25
1075.232  , 0 , 4 ,  4119.00
1076.280  , 0 , 4 ,  4118.75
1077.328  , 0 , 4 ,  4118.75
1078.376  , 0 , 4 ,  4118.50
1079.424  , 0 , 4 ,  4118.75
1080.472  , 0 , 4 ,  4118.25
1081.520  , 0 , 4 ,  4118.50
1082.568  , 0 , 4 ,  4118.00
1083.617  , 0 , 4 ,  4118.50
1084.666  , 0 , 4 ,  4117.50
1085.716  , 0 , 4 ,  4118.25
1086.766  , 0 , 4 ,  4117.75
1087.814  , 0 , 4 ,  4117.75
1088.864  , 0 , 4 ,  4117.50
1089.913  , 0 , 4 ,  4118.00
1090.963  , 0 , 4 ,  4117.50
1092.012  , 0 , 4 ,  4117.50
1093.061  , 0 , 4 ,  4117.50
1094.111  , 0 , 4 ,  4117.25
1095.160  , 0 , 4 ,  4117.25
1096.209  , 0 , 4 ,  4117.25
1097.259  , 0 , 4 ,  4116.50
1098.308  , 0 , 4 ,  4117.00
1099.358  , 0 , 4 ,  4116.50
1100.406  , 0 , 4 ,  4117.00
1101.456  , 0 , 4 ,  4116.75
1102.505  , 0 , 4 ,  4116.50
1103.555  , 0 , 4 ,  4116.50
1104.604  , 0 , 4 ,  4116.50
1105.653  , 0 , 4 ,  4116.25
1106.703  , 0 , 4 ,  4115.75
1107.752  , 0 , 4 ,  4116.00
1108.801  , 0 , 4 ,  4115.50
1109.851  , 0 , 4 ,  4115.75
1110.899  , 0 , 4 ,  4116.00
1111.949  , 0 , 4 ,  4115.75
1112.997  , 0 , 4 ,  4115.50
1114.046  , 0 , 4 ,  4115.50
1115.095  , 0 , 4 ,  4115.50
1116.142  , 0 , 4 ,  4115.50
1117.190  , 0 , 4 ,  4115.00
1118.237  , 0 , 4 ,  4115.25
1119.285  , 0 , 4 ,  4115.00
1120.332  , 0 , 4 ,  4114.50
1121.380  , 0 , 4 ,  4114.75
1122.427  , 0 , 4 ,  4115.00
1123.476  , 0 , 4 ,  4115.00
1124.524  , 0 , 4 ,  4114.75
1125.571  , 0 , 4 ,  4114.50
1126.620  , 0 , 4 ,  4114.50
1127.667  , 0 , 4 ,  4114.25
1128.715  , 0 , 4 ,  4114.25
1129.763  , 0 , 4 ,  4114.50
1130.811  , 0 , 4 ,  4114.25
1131.859  , 0 , 4 ,  4113.75
1132.907  , 0 , 4 ,  4113.50
1133.955  , 0 , 4 ,  4113.75
1135.003  , 0 , 4 ,  4113.75
1136.051  , 0 , 4 ,  4113.50
1137.098  , 0 , 4 ,  4113.50
1138.147  , 0 , 4 ,  4113.25
1139.194  , 0 , 4 ,  4113.50
1140.242  , 0 , 4 ,  4113.25
1141.291  , 0 , 4 ,  4113.00
1142.338  , 0 , 4 ,  4112.75
1143.386  , 0 , 4 ,  4112.75
1144.434  , 0 , 4 ,  4112.75
1145.482  , 0 , 4 ,  4112.25
1146.529  , 0 , 4 ,  4112.75
1147.578  , 0 , 4 ,  4111.75
1148.627  , 0 , 4 ,  4112.25
1149.676  , 0 , 4 ,  4112.25
1150.726  , 0 , 4 ,  4112.25
1151.775  , 0 , 4 ,  4111.75
1152.825  , 0 , 4 ,  4112.00
1153.873  , 0 , 4 ,  4112.00
1154.923  , 0 , 4 ,  4112.00
1155.972  , 0 , 4 ,  4111.75
1157.021  , 0 , 4 ,  4111.75
1158.070  , 0 , 4 ,  4111.25
1159.119  , 0 , 4 ,  4111.50
1160.168  , 0 , 4 ,  4111.00
1161.218  , 0 , 4 ,  4111.25
1162.267  , 0 , 4 ,  4110.50
1163.316  , 0 , 4 ,  4111.25
1164.365  , 0 , 4 ,  4110.50
1165.414  , 0 , 4 ,  4110.50
1166.464  , 0 , 4 ,  4110.75
1167.513  , 0 , 4 ,  4110.50
1168.562  , 0 , 4 ,  4110.25
1169.611  , 0 , 4 ,  4110.50
1170.661  , 0 , 4 ,  4110.50
1171.710  , 0 , 4 ,  4110.50
1172.759  , 0 , 4 ,  4110.00
1173.809  , 0 , 4 ,  4110.00
1174.858  , 0 , 4 ,  4110.00
1175.907  , 0 , 4 ,  4110.00
1176.956  , 0 , 4 ,  4109.25
1178.005  , 0 , 4 ,  4109.75
1179.054  , 0 , 4 ,  4110.00
1180.103  , 0 , 4 ,  4109.75
1181.152  , 0 , 4 ,  4110.00
1182.199  , 0 , 4 ,  4109.75
1183.247  , 0 , 4 ,  4109.50
1184.294  , 0 , 4 ,  4109.50
1185.342  , 0 , 4 ,  4109.50
1186.388  , 0 , 4 ,  4109.25
1187.437  , 0 , 4 ,  4109.00
1188.485  , 0 , 4 ,  4108.50
1189.533  , 0 , 4 ,  4108.75
1190.581  , 0 , 4 ,  4109.00
1191.628  , 0 , 4 ,  4109.00
1192.677  , 0 , 4 ,  4108.75
1193.724  , 0 , 4 ,  4108.75
1194.772  , 0 , 4 ,  4108.00
1195.821  , 0 , 4 ,  4106.25
1196.868  , 0 , 4 ,  4106.00
1197.916  , 0 , 4 ,  4104.75
1198.964  , 0 , 4 ,  4103.50
1200.012  , 0 , 4 ,  4103.00
1201.059  , 0 , 4 ,  4102.75
1202.108  , 0 , 4 ,  4101.75
1203.155  , 0 , 4 ,  4100.50
1204.203  , 0 , 4 ,  4099.75
1205.252  , 0 , 4 ,  4099.50
1206.299  , 0 , 4 ,  4099.00
1207.347  , 0 , 4 ,  4098.25
1208.394  , 0 , 4 ,  4097.25
1209.443  , 0 , 4 ,  4097.50
1210.490  , 0 , 4 ,  4097.00
1211.538  , 0 , 4 ,  4096.50
1212.587  , 0 , 4 ,  4096.00
1213.634  , 0 , 4 ,  4095.00
1214.683  , 0 , 4 ,  4094.75
1215.732  , 0 , 4 ,  4093.75
1216.782  , 0 , 4 ,  4092.50
1217.831  , 0 , 4 ,  4092.25
1218.880  , 0 , 4 ,  4091.25
1219.930  , 0 , 4 ,  4091.25
1220.979  , 0 , 4 ,  4090.75
1222.028  , 0 , 4 ,  4091.00
1223.077  , 0 , 4 ,  4090.00
1224.127  , 0 , 4 ,  4088.75
1225.176  , 0 , 4 ,  4088.50
1226.225  , 0 , 4 ,  4088.00
1227.275  , 0 , 4 ,  4088.50
1228.323  , 0 , 4 ,  4088.50
1229.373  , 0 , 4 ,  4087.75
1230.423  , 0 , 4 ,  4086.75
1231.471  , 0 , 4 ,  4086.25
1232.521  , 0 , 4 ,  4086.50
1233.570  , 0 , 4 ,  4086.50
1234.619  , 0 , 4 ,  4086.25
1235.667  , 0 , 4 ,  4086.25
1236.717  , 0 , 4 ,  4086.00
1237.766  , 0 , 4 ,  4085.50
1238.815  , 0 , 4 ,  4085.25
1239.864  , 0 , 4 ,  4085.00
1240.913  , 0 , 4 ,  4084.50
1241.961  , 0 , 4 ,  4084.00
1243.011  , 0 , 4 ,  4083.25
1244.059  , 0 , 4 ,  4082.75
1245.108  , 0 , 4 ,  4082.75
1246.156  , 0 , 4 ,  4082.75
1247.204  , 0 , 4 ,  4082.25
1248.251  , 0 , 4 ,  4082.25
1249.299  , 0 , 4 ,  4082.25
1250.347  , 0 , 4 ,  4082.50
1251.394  , 0 , 4 ,  4082.25
1252.442  , 0 , 4 ,  4081.75
1253.489  , 0 , 4 ,  4081.75
1254.537  , 0 , 4 ,  4081.00
1255.584  , 0 , 4 ,  4080.25
1256.633  , 0 , 4 ,  4080.50
1257.680  , 0 , 4 ,  4079.75
1258.728  , 0 , 4 ,  4079.50
1259.776  , 0 , 4 ,  4079.75
1260.824  , 0 , 4 ,  4079.50
1261.872  , 0 , 4 ,  4079.25
1262.919  , 0 , 4 ,  4079.50
1263.968  , 0 , 4 ,  4079.25
1265.015  , 0 , 4 ,  4079.25
1266.063  , 0 , 4 ,  4079.00
1267.110  , 0 , 4 ,  4079.00
1268.159  , 0 , 4 ,  4078.75
1269.207  , 0 , 4 ,  4077.75
1270.254  , 0 , 4 ,  4077.00
1271.302  , 0 , 4 ,  4077.00
1272.350  , 0 , 4 ,  4076.50
1273.398  , 0 , 4 ,  4076.75
1274.445  , 0 , 4 ,  4077.00
1275.494  , 0 , 4 ,  4076.50
1276.541  , 0 , 4 ,  4076.25
1277.589  , 0 , 4 ,  4076.25
1278.637  , 0 , 4 ,  4076.00
1279.686  , 0 , 4 ,  4075.25
1280.735  , 0 , 4 ,  4074.75
1281.784  , 0 , 4 ,  4075.00
1282.834  , 0 , 4 ,  4074.50
1283.883  , 0 , 4 ,  4073.75
1284.932  , 0 , 4 ,  4073.50
1285.982  , 0 , 4 ,  4073.25
1287.030  , 0 , 4 ,  4073.25
1288.080  , 0 , 4 ,  4072.75
1289.129  , 0 , 4 ,  4073.00
1290.178  , 0 , 4 ,  4072.50
1291.228  , 0 , 4 ,  4072.00
1292.277  , 0 , 4 ,  4071.50
1293.327  , 0 , 4 ,  4071.75
1294.375  , 0 , 4 ,  4071.50
1295.425  , 0 , 4 ,  4071.25
1296.475  , 0 , 4 ,  4071.25
1297.523  , 0 , 4 ,  4071.25
1298.573  , 0 , 4 ,  4071.25
1299.622  , 0 , 4 ,  4070.75
1300.671  , 0 , 4 ,  4071.00
1301.721  , 0 , 4 ,  4071.25
1302.770  , 0 , 4 ,  4070.75
1303.819  , 0 , 4 ,  4070.75
1304.868  , 0 , 4 ,  4070.50
1305.918  , 0 , 4 ,  4069.75
1306.967  , 0 , 4 ,  4070.25
1308.015  , 0 , 4 ,  4070.00
1309.064  , 0 , 4 ,  4070.00
1310.112  , 0 , 4 ,  4069.25
1311.161  , 0 , 4 ,  4069.00
1312.209  , 0 , 4 ,  4068.50
1313.257  , 0 , 4 ,  4068.00
1314.305  , 0 , 4 ,  4068.25
1315.352  , 0 , 4 ,  4068.75
1316.400  , 0 , 4 ,  4069.00
1317.446  , 0 , 4 ,  4068.25
1318.495  , 0 , 4 ,  4068.50
1319.542  , 0 , 4 ,  4068.50
1320.590  , 0 , 4 ,  4068.00
1321.637  , 0 , 4 ,  4068.50
1322.686  , 0 , 4 ,  4068.50
1323.734  , 0 , 4 ,  4068.25
1324.781  , 0 , 4 ,  4068.25
1325.830  , 0 , 4 ,  4068.00
1326.877  , 0 , 4 ,  4067.50
1327.925  , 0 , 4 ,  4067.25
1328.972  , 0 , 4 ,  4067.75
1330.021  , 0 , 4 ,  4068.00
1331.068  , 0 , 4 ,  4067.50
1332.116  , 0 , 4 ,  4066.75
1333.164  , 0 , 4 ,  4066.75
1334.212  , 0 , 4 ,  4066.50
1335.260  , 0 , 4 ,  4067.00
1336.307  , 0 , 4 ,  4066.00
1337.355  , 0 , 4 ,  4066.25
1338.403  , 0 , 4 ,  4066.00
1339.451  , 0 , 4 ,  4065.25
1340.498  , 0 , 4 ,  4066.00
1341.547  , 0 , 4 ,  4065.75
1342.595  , 0 , 4 ,  4065.75
